{
  "file_generated_by": "FlutterFire CLI",
  "purpose": "FirebaseAppID & ProjectID for this Firebase app in this directory",
  "GOOGLE_APP_ID": "1:995542955673:ios:eb4a41c91f1202b2902a08",
  "FIREBASE_PROJECT_ID": "e4t-prod",
  "GCM_SENDER_ID": "995542955673"
}